Set0_Apply_DataPathInit
Slave Address : A0 , Reg. Address : 7F , RW : 0 , Length :   1 , Delay :   100 , Data : 10
Slave Address : A0 , Reg. Address : 8F , RW : 0 , Length :   1 , Delay :   10 , Data : FF
Config Invalid Mode Lane0
Slave Address : A0 , Reg. Address : 7F , RW : 0 , Length :   1 , Delay :   100 , Data : 10
Slave Address : A0 , Reg. Address : 91 , RW : 0 , Length :   1 , Delay :   10 , Data : FF
Slave Address : A0 , Reg. Address : 7F , RW : 0 , Length :   1 , Delay :   100 , Data : 11
Slave Address : A0 , Reg. Address : CA , RW : 1 , Length :   1 , Delay :   10 , Data : 13
Slave Address : A0 , Reg. Address : CE , RW : 1 , Length :   1 , Delay :   10 , Data : 00
Config Invalid Mode Lane1
Slave Address : A0 , Reg. Address : 7F , RW : 0 , Length :   1 , Delay :   100 , Data : 10
Slave Address : A0 , Reg. Address : 92 , RW : 0 , Length :   1 , Delay :   10 , Data : FF
Slave Address : A0 , Reg. Address : 7F , RW : 0 , Length :   1 , Delay :   100 , Data : 11
Slave Address : A0 , Reg. Address : CA , RW : 1 , Length :   1 , Delay :   10 , Data : 33
Slave Address : A0 , Reg. Address : CF , RW : 1 , Length :   1 , Delay :   10 , Data : 00
Config Invalid Mode Lane2
Slave Address : A0 , Reg. Address : 7F , RW : 0 , Length :   1 , Delay :   100 , Data : 10
Slave Address : A0 , Reg. Address : 93 , RW : 0 , Length :   1 , Delay :   10 , Data : FF
Slave Address : A0 , Reg. Address : 7F , RW : 0 , Length :   1 , Delay :   100 , Data : 11
Slave Address : A0 , Reg. Address : CB , RW : 1 , Length :   1 , Delay :   10 , Data : 13
Slave Address : A0 , Reg. Address : D0 , RW : 1 , Length :   1 , Delay :   10 , Data : 00
Config Invalid Mode Lane3
Slave Address : A0 , Reg. Address : 7F , RW : 0 , Length :   1 , Delay :   100 , Data : 10
Slave Address : A0 , Reg. Address : 94 , RW : 0 , Length :   1 , Delay :   10 , Data : FF
Slave Address : A0 , Reg. Address : 7F , RW : 0 , Length :   1 , Delay :   100 , Data : 11
Slave Address : A0 , Reg. Address : CB , RW : 1 , Length :   1 , Delay :   10 , Data : 33
Slave Address : A0 , Reg. Address : D1 , RW : 1 , Length :   1 , Delay :   10 , Data : 00
Config 1X10G NRZ to 1X10G NRZ Mode Lane0
Slave Address : A0 , Reg. Address : 7F , RW : 0 , Length :   1 , Delay :   100 , Data : 10
Slave Address : A0 , Reg. Address : 91 , RW : 0 , Length :   1 , Delay :   10 , Data : 71
Slave Address : A0 , Reg. Address : 7F , RW : 0 , Length :   1 , Delay :   100 , Data : 11
Slave Address : A0 , Reg. Address : CA , RW : 1 , Length :   1 , Delay :   10 , Data : 31
Slave Address : A0 , Reg. Address : CE , RW : 1 , Length :   1 , Delay :   10 , Data : 71
Config 1X10G NRZ to 1X10G NRZ Mode Lane1
Slave Address : A0 , Reg. Address : 7F , RW : 0 , Length :   1 , Delay :   100 , Data : 10
Slave Address : A0 , Reg. Address : 92 , RW : 0 , Length :   1 , Delay :   10 , Data : 71
Slave Address : A0 , Reg. Address : 7F , RW : 0 , Length :   1 , Delay :   100 , Data : 11
Slave Address : A0 , Reg. Address : CA , RW : 1 , Length :   1 , Delay :   10 , Data : 11
Slave Address : A0 , Reg. Address : CF , RW : 1 , Length :   1 , Delay :   10 , Data : 71
Config 1X10G NRZ to 1X10G NRZ Mode Lane2
Slave Address : A0 , Reg. Address : 7F , RW : 0 , Length :   1 , Delay :   100 , Data : 10
Slave Address : A0 , Reg. Address : 93 , RW : 0 , Length :   1 , Delay :   10 , Data : 71
Slave Address : A0 , Reg. Address : 7F , RW : 0 , Length :   1 , Delay :   100 , Data : 11
Slave Address : A0 , Reg. Address : CB , RW : 1 , Length :   1 , Delay :   10 , Data : 31
Slave Address : A0 , Reg. Address : D0 , RW : 1 , Length :   1 , Delay :   10 , Data : 71
Config 1X10G NRZ to 1X10G NRZ Mode Lane3
Slave Address : A0 , Reg. Address : 7F , RW : 0 , Length :   1 , Delay :   100 , Data : 10
Slave Address : A0 , Reg. Address : 94 , RW : 0 , Length :   1 , Delay :   10 , Data : 71
Slave Address : A0 , Reg. Address : 7F , RW : 0 , Length :   1 , Delay :   100 , Data : 11
Slave Address : A0 , Reg. Address : CB , RW : 1 , Length :   1 , Delay :   10 , Data : 11
Slave Address : A0 , Reg. Address : D1 , RW : 1 , Length :   1 , Delay :   10 , Data : 71
System Side Values
Slave Address : A0 , Reg. Address : 7A , RW : 0 , Length :   1 , Delay :   10 , Data : 3A 18 B6 6F
Slave Address : A0 , Reg. Address : 7F , RW : 0 , Length :   1 , Delay :   100 , Data : 87
Slave Address : A0 , Reg. Address : 80 , RW : 1 , Length :   8 , Delay :   10 , Data : FF F4 FF F4 FF F4 FF F4
Slave Address : A0 , Reg. Address : 88 , RW : 1 , Length :   8 , Delay :   10 , Data : 00 70 00 70 00 70 00 70
Slave Address : A0 , Reg. Address : 90 , RW : 1 , Length :   8 , Delay :   10 , Data : 00 00 00 00 00 00 00 00