Version
Slave Address : A0 , Reg. Address : 01 , RW : 1 , Length :   1 , Delay :   100 , Data : 40
ModuleLowPwr
Slave Address : A0 , Reg. Address : 03 , RW : 1 , Length :   1 , Delay :   100 , Data : 02
ModuleStateChanged then Clear Flag
Slave Address : A0 , Reg. Address : 08 , RW : 1 , Length :   1 , Delay :   10 , Data : 01
Slave Address : A0 , Reg. Address : 08 , RW : 1 , Length :   1 , Delay :   10 , Data : 00
LowPwr Bit
Slave Address : A0 , Reg. Address : 1A , RW : 1 , Length :   1 , Delay :   100 , Data : 40
Page10h DataPathDeinit
Slave Address : A0 , Reg. Address : 7F , RW : 0 , Length :   1 , Delay :   100 , Data : 10
Slave Address : A0 , Reg. Address : 80 , RW : 1 , Length :   1 , Delay :   10 , Data : 00
Page11h
Slave Address : A0 , Reg. Address : 7F , RW : 0 , Length :   1 , Delay :   100 , Data : 11
DataPathDeactivate then Clear Flag
Slave Address : A0 , Reg. Address : 80 , RW : 1 , Length :   4 , Delay :   100 , Data : 11 11 11 11
Slave Address : A0 , Reg. Address : 86 , RW : 1 , Length :   1 , Delay :   10 , Data : 0F
Slave Address : A0 , Reg. Address : 86 , RW : 1 , Length :   1 , Delay :   10 , Data : 00
Config Error Code
Slave Address : A0 , Reg. Address : CA , RW : 1 , Length :   4 , Delay :   10 , Data : 00 00 00 00
Page10h DataPathDeinit=>0xFF to Config Mode
Slave Address : A0 , Reg. Address : 7F , RW : 0 , Length :   1 , Delay :   100 , Data : 10
Slave Address : A0 , Reg. Address : 80 , RW : 0 , Length :   1 , Delay :   10 , Data : FF
LowPwr => Power Up
Slave Address : A0 , Reg. Address : 1A , RW : 0 , Length :   1 , Delay :   1000 , Data : 00
ModuleReady
Slave Address : A0 , Reg. Address : 03 , RW : 1 , Length :   1 , Delay :   10 , Data : 06
ModuleStateChanged then Clear Flag
Slave Address : A0 , Reg. Address : 08 , RW : 1 , Length :   1 , Delay :   10 , Data : 01
Slave Address : A0 , Reg. Address : 08 , RW : 1 , Length :   1 , Delay :   10 , Data : 00
Set0_Apply_DataPathInit
Slave Address : A0 , Reg. Address : 8F , RW : 0 , Length :   1 , Delay :   10 , Data : FF
Config rejected invalid code Lane0
Slave Address : A0 , Reg. Address : 7F , RW : 0 , Length :   1 , Delay :   100 , Data : 10
Slave Address : A0 , Reg. Address : 91 , RW : 0 , Length :   1 , Delay :   10 , Data : FF
Slave Address : A0 , Reg. Address : 7F , RW : 0 , Length :   1 , Delay :   100 , Data : 11
Slave Address : A0 , Reg. Address : CA , RW : 1 , Length :   1 , Delay :   10 , Data : 13
Slave Address : A0 , Reg. Address : CE , RW : 1 , Length :   1 , Delay :   10 , Data : 00
Config rejected invalid code Lane1
Slave Address : A0 , Reg. Address : 7F , RW : 0 , Length :   1 , Delay :   100 , Data : 10
Slave Address : A0 , Reg. Address : 92 , RW : 0 , Length :   1 , Delay :   10 , Data : FF
Slave Address : A0 , Reg. Address : 7F , RW : 0 , Length :   1 , Delay :   100 , Data : 11
Slave Address : A0 , Reg. Address : CA , RW : 1 , Length :   1 , Delay :   10 , Data : 33
Slave Address : A0 , Reg. Address : CF , RW : 1 , Length :   1 , Delay :   10 , Data : 00
Config rejected invalid code Lane2
Slave Address : A0 , Reg. Address : 7F , RW : 0 , Length :   1 , Delay :   100 , Data : 10
Slave Address : A0 , Reg. Address : 93 , RW : 0 , Length :   1 , Delay :   10 , Data : FF
Slave Address : A0 , Reg. Address : 7F , RW : 0 , Length :   1 , Delay :   100 , Data : 11
Slave Address : A0 , Reg. Address : CB , RW : 1 , Length :   1 , Delay :   10 , Data : 13
Slave Address : A0 , Reg. Address : D0 , RW : 1 , Length :   1 , Delay :   10 , Data : 00
Config rejected invalid code Lane3
Slave Address : A0 , Reg. Address : 7F , RW : 0 , Length :   1 , Delay :   100 , Data : 10
Slave Address : A0 , Reg. Address : 94 , RW : 0 , Length :   1 , Delay :   10 , Data : FF
Slave Address : A0 , Reg. Address : 7F , RW : 0 , Length :   1 , Delay :   100 , Data : 11
Slave Address : A0 , Reg. Address : CB , RW : 1 , Length :   1 , Delay :   10 , Data : 33
Slave Address : A0 , Reg. Address : D1 , RW : 1 , Length :   1 , Delay :   10 , Data : 00
Config 1X10G NRZ to 1X10G NRZ Mode Lane0
Slave Address : A0 , Reg. Address : 7F , RW : 0 , Length :   1 , Delay :   100 , Data : 10
Slave Address : A0 , Reg. Address : 91 , RW : 0 , Length :   1 , Delay :   10 , Data : 31
Slave Address : A0 , Reg. Address : 7F , RW : 0 , Length :   1 , Delay :   100 , Data : 11
Slave Address : A0 , Reg. Address : CA , RW : 1 , Length :   1 , Delay :   10 , Data : 31
Slave Address : A0 , Reg. Address : CE , RW : 1 , Length :   1 , Delay :   10 , Data : 31
Config 4X25G NRZ to 4X25G NRZ Mode Lane1
Slave Address : A0 , Reg. Address : 7F , RW : 0 , Length :   1 , Delay :   100 , Data : 10
Slave Address : A0 , Reg. Address : 92 , RW : 0 , Length :   1 , Delay :   10 , Data : 31
Slave Address : A0 , Reg. Address : 7F , RW : 0 , Length :   1 , Delay :   100 , Data : 11
Slave Address : A0 , Reg. Address : CA , RW : 1 , Length :   1 , Delay :   10 , Data : 11
Slave Address : A0 , Reg. Address : CF , RW : 1 , Length :   1 , Delay :   10 , Data : 31
Config 4X25G NRZ to 4X25G NRZ Mode Lane2
Slave Address : A0 , Reg. Address : 7F , RW : 0 , Length :   1 , Delay :   100 , Data : 10
Slave Address : A0 , Reg. Address : 93 , RW : 0 , Length :   1 , Delay :   10 , Data : 31
Slave Address : A0 , Reg. Address : 7F , RW : 0 , Length :   1 , Delay :   100 , Data : 11
Slave Address : A0 , Reg. Address : CB , RW : 1 , Length :   1 , Delay :   10 , Data : 31
Slave Address : A0 , Reg. Address : D0 , RW : 1 , Length :   1 , Delay :   10 , Data : 31
Config 4X25G NRZ to 4X25G NRZ Mode Lane3
Slave Address : A0 , Reg. Address : 7F , RW : 0 , Length :   1 , Delay :   100 , Data : 10
Slave Address : A0 , Reg. Address : 94 , RW : 0 , Length :   1 , Delay :   10 , Data : 31
Slave Address : A0 , Reg. Address : 7F , RW : 0 , Length :   1 , Delay :   100 , Data : 11
Slave Address : A0 , Reg. Address : CB , RW : 1 , Length :   1 , Delay :   10 , Data : 11
Slave Address : A0 , Reg. Address : D1 , RW : 1 , Length :   1 , Delay :   10 , Data : 31
Exit Config Mode
Slave Address : A0 , Reg. Address : 7F , RW : 0 , Length :   1 , Delay :   100 , Data : 10
Slave Address : A0 , Reg. Address : 80 , RW : 0 , Length :   1 , Delay :   2000 , Data : 00
DataPathActivated then Clear Flag
Slave Address : A0 , Reg. Address : 7F , RW : 0 , Length :   1 , Delay :   100 , Data : 11
Slave Address : A0 , Reg. Address : 80 , RW : 1 , Length :   2 , Delay :   10 , Data : 44 44
Slave Address : A0 , Reg. Address : 86 , RW : 1 , Length :   1 , Delay :   10 , Data : 0F
Slave Address : A0 , Reg. Address : 86 , RW : 1 , Length :   1 , Delay :   10 , Data : 00
Max Rx Output Limit
Slave Address : A0 , Reg. Address : 7F , RW : 0 , Length :   1 , Delay :   100 , Data : 01
Slave Address : A0 , Reg. Address : 99 , RW : 1 , Length :   1 , Delay :   10 , Data : 70
Slave Address : A0 , Reg. Address : 9A , RW : 1 , Length :   1 , Delay :   10 , Data : 33
Check Clear Set0_Apply_DataPathInit
Slave Address : A0 , Reg. Address : 7F , RW : 0 , Length :   1 , Delay :   100 , Data : 10
Slave Address : A0 , Reg. Address : 8F , RW : 1 , Length :   1 , Delay :   10 , Data : 00
Write Password
Slave Address : A0 , Reg. Address : 7A , RW : 0 , Length :   1 , Delay :   10 , Data : 3A 18 B6 6F
System Side Values
Slave Address : A0 , Reg. Address : 7F , RW : 0 , Length :   1 , Delay :   100 , Data : 87
Slave Address : A0 , Reg. Address : 80 , RW : 1 , Length :   8 , Delay :   10 , Data : FF F4 FF F4 FF F4 FF F4
Slave Address : A0 , Reg. Address : 88 , RW : 1 , Length :   8 , Delay :   10 , Data : 00 70 00 70 00 70 00 70
Slave Address : A0 , Reg. Address : 90 , RW : 1 , Length :   8 , Delay :   10 , Data : 00 00 00 00 00 00 00 00