Set0_Apply_DataPathInit and Mode to PAM4
Slave Address : A0 , Reg. Address : 7F , RW : 0 , Length :   1 , Delay :   100 , Data : 10
Slave Address : A0 , Reg. Address : 8F , RW : 0 , Length :   1 , Delay :   10 , Data : 0F
Slave Address : A0 , Reg. Address : 91 , RW : 0 , Length :   8 , Delay :   10 , Data : 21 21 21 21 00 00 00 00
Lane0 - Out of Range 4
Slave Address : A0 , Reg. Address : 7F , RW : 0 , Length :   1 , Delay :   100 , Data : 10
Slave Address : A0 , Reg. Address : A6 , RW : 0 , Length :   1 , Delay :   10 , Data : 04
Slave Address : A0 , Reg. Address : 90 , RW : 0 , Length :   1 , Delay :   10 , Data : 0F
Slave Address : A0 , Reg. Address : 7F , RW : 0 , Length :   1 , Delay :   100 , Data : 11
Slave Address : A0 , Reg. Address : CA , RW : 1 , Length :   1 , Delay :   10 , Data : 15
Lane1 - Out of Range 4
Slave Address : A0 , Reg. Address : 7F , RW : 0 , Length :   1 , Delay :   100 , Data : 10
Slave Address : A0 , Reg. Address : A6 , RW : 0 , Length :   1 , Delay :   10 , Data : 44
Slave Address : A0 , Reg. Address : 90 , RW : 0 , Length :   1 , Delay :   10 , Data : 0F
Slave Address : A0 , Reg. Address : 7F , RW : 0 , Length :   1 , Delay :   100 , Data : 11
Slave Address : A0 , Reg. Address : CA , RW : 1 , Length :   1 , Delay :   10 , Data : 55
Lane2 - Out of Range 4
Slave Address : A0 , Reg. Address : 7F , RW : 0 , Length :   1 , Delay :   100 , Data : 10
Slave Address : A0 , Reg. Address : A7 , RW : 0 , Length :   1 , Delay :   10 , Data : 04
Slave Address : A0 , Reg. Address : 90 , RW : 0 , Length :   1 , Delay :   10 , Data : 0F
Slave Address : A0 , Reg. Address : 7F , RW : 0 , Length :   1 , Delay :   100 , Data : 11
Slave Address : A0 , Reg. Address : CB , RW : 1 , Length :   1 , Delay :   10 , Data : 15
Lane3 - Out of Range 4
Slave Address : A0 , Reg. Address : 7F , RW : 0 , Length :   1 , Delay :   100 , Data : 10
Slave Address : A0 , Reg. Address : A7 , RW : 0 , Length :   1 , Delay :   10 , Data : 44
Slave Address : A0 , Reg. Address : 90 , RW : 0 , Length :   1 , Delay :   10 , Data : 0F
Slave Address : A0 , Reg. Address : 7F , RW : 0 , Length :   1 , Delay :   100 , Data : 11
Slave Address : A0 , Reg. Address : CB , RW : 1 , Length :   1 , Delay :   10 , Data : 55
Lane0 - Value 3
Slave Address : A0 , Reg. Address : 7F , RW : 0 , Length :   1 , Delay :   100 , Data : 10
Slave Address : A0 , Reg. Address : A6 , RW : 0 , Length :   1 , Delay :   10 , Data : 43
Slave Address : A0 , Reg. Address : 90 , RW : 0 , Length :   1 , Delay :   10 , Data : 0F
Slave Address : A0 , Reg. Address : 7F , RW : 0 , Length :   1 , Delay :   100 , Data : 11
Slave Address : A0 , Reg. Address : CA , RW : 1 , Length :   1 , Delay :   10 , Data : 51
Lane1 - Value 3
Slave Address : A0 , Reg. Address : 7F , RW : 0 , Length :   1 , Delay :   100 , Data : 10
Slave Address : A0 , Reg. Address : A6 , RW : 0 , Length :   1 , Delay :   10 , Data : 33
Slave Address : A0 , Reg. Address : 90 , RW : 0 , Length :   1 , Delay :   10 , Data : 0F
Slave Address : A0 , Reg. Address : 7F , RW : 0 , Length :   1 , Delay :   100 , Data : 11
Slave Address : A0 , Reg. Address : CA , RW : 1 , Length :   1 , Delay :   10 , Data : 11
Lane2 - Value 3
Slave Address : A0 , Reg. Address : 7F , RW : 0 , Length :   1 , Delay :   100 , Data : 10
Slave Address : A0 , Reg. Address : A7 , RW : 0 , Length :   1 , Delay :   10 , Data : 43
Slave Address : A0 , Reg. Address : 90 , RW : 0 , Length :   1 , Delay :   10 , Data : 0F
Slave Address : A0 , Reg. Address : 7F , RW : 0 , Length :   1 , Delay :   100 , Data : 11
Slave Address : A0 , Reg. Address : CB , RW : 1 , Length :   1 , Delay :   10 , Data : 51
Lane3 - Value 3
Slave Address : A0 , Reg. Address : 7F , RW : 0 , Length :   1 , Delay :   100 , Data : 10
Slave Address : A0 , Reg. Address : A7 , RW : 0 , Length :   1 , Delay :   10 , Data : 33
Slave Address : A0 , Reg. Address : 90 , RW : 0 , Length :   1 , Delay :   10 , Data : 0F
Slave Address : A0 , Reg. Address : 7F , RW : 0 , Length :   1 , Delay :   200 , Data : 11
Slave Address : A0 , Reg. Address : CB , RW : 1 , Length :   1 , Delay :   10 , Data : 11
Write Password
Slave Address : A0 , Reg. Address : 7A , RW : 0 , Length :   1 , Delay :   10 , Data : 3A 18 B6 6F
System Side Values
Slave Address : A0 , Reg. Address : 7F , RW : 0 , Length :   1 , Delay :   100 , Data : 87
Slave Address : A0 , Reg. Address : 90 , RW : 1 , Length :   8 , Delay :   10 , Data : FF F4 FF F4 FF F4 FF F4
Slave Address : A0 , Reg. Address : 98 , RW : 1 , Length :   8 , Delay :   10 , Data : 00 00 00 00 00 00 00 00
Slave Address : A0 , Reg. Address : A0 , RW : 1 , Length :   8 , Delay :   10 , Data : 00 00 00 00 00 00 00 00