Dy2-me-dd
Th:m:s
W<R_QR Code Settle>,5,2,M0,8,7,23,0
<PN>/<SN>
Y<R_FC Settle>,Image0-62
AG,<R_Luxshare Settle>,1,1,0,0E,LUXSHARE-ICT
AD,<R_Product Settle>,1,1,0,0E,<Product>
AD,<R_PN/SN Settle>,1,1,0,0E,<PN>/<SN>
AD,<R_Class Settle>,1,1,0,0E,<Class>
AD,<R_Made In Taiwan Settle>,1,1,0,0E,MADE IN TAIWAN