0D
40
23
01
00
00
00
00
00
00
00
05
67
00
00
00
00
00
0A
00
4C
55
58
53
48
41
52
45
2D
49
43
54
20
20
20
20
07
3C
18
A0
50
36
55
51
53
30
35
30
31
2D
53
44
2D
52
20
20
41
20
42
68
07
D0
00
00
11
00
00
00
20
20
20
20
20
20
20
20
20
20
20
20
20
20
20
20
00
00
00
00
00
00
20
20
08
00
00
00
00
00
00
00
00
00
00
00
00
00
00
00
00
00
00
00
00
00
00
00
00
00
00
00
00
00
00
00
00
00
00
00
