0D
40
23
08
00
00
00
00
00
80
00
00
67
00
00
00
00
00
0A
A0
4C
55
58
53
48
41
52
45
2D
49
43
54
20
20
20
20
07
3C
18
A0
50
55
48
51
51
30
00
00
45
2D
53
44
2D
52
20
20
41
20
42
68
00
00
55
00
00
00
00
00
41
37
34
4D
41
30
30
31
20
20
20
20
20
20
20
20
00
00
00
00
00
00
20
20
00
00
00
00
00
00
00
00
00
00
00
00
00
00
00
00
00
00
00
00
00
00
00
00
00
00
00
00
00
00
00
00
00
00
00
00
