18
4C
55
58
53
48
41
52
45
2D
49
43
54
20
20
20
20
00
1C
73
50
55
59
44
44
4D
20
20
20
2D
53
44
2D
52
20
20
41
30
41
38
36
20
20
20
20
20
20
20
20
20
20
20
20
20
59
59
4D
4D
44
44
20
20
00
00
00
00
00
00
00
00
00
00
80
28
41
23
00
00
00
00
00
00
00
02
00
00
00
00
00
00
00
00
00
00
00
00
43
52
41
59
20
31
30
31
37
39
33
31
30
30
41
20
41
00
00
00
00
00
00
00
00
00
00
00
00
00
00
00
