02
03
02
00
00
00
00
32
00
00
42
68
07
D0
04
0A
88
60
46
00
00
00
00
10
00
00
00
00
00
00
00
03
07
00
00
00
00
00
00
00
00
00
00
00
00
00
00
00
01
11
FF
FF
00
00
00
00
00
00
00
00
00
00
00
00
00
00
00
00
00
00
00
00
00
00
00
00
00
00
00
00
00
00
00
00
00
00
00
00
00
00
00
00
00
00
00
00
00
00
00
00
00
00
00
00
00
00
00
00
00
00
00
00
00
00
00
00
00
00
00
00
00
00
00
00
00
00
00
00
