02
03
02
00
00
00
32
23
00
00
42
68
07
D0
04
0A
88
60
46
00
00
00
96
00
31
FA
00
02
00
00
00
03
07
07
07
00
00
00
00
00
00
00
00
00
00
00
00
00
01
11
55
FF
00
00
00
00
00
00
00
00
00
00
00
00
00
00
00
00
00
00
00
00
00
00
00
00
00
00
00
00
00
00
00
00
00
00
00
00
00
00
00
00
00
00
00
00
00
00
00
00
00
00
00
00
00
00
00
00
00
00
00
00
00
00
00
00
00
00
00
00
00
00
00
00
00
00
00
11
