^Q11,2
^W87
^H19
^P1
^S2
^AD
^C1
^R31
~Q+0
^O0
^D0
^E16
~R255
^L
Dy2-me-dd
Th:m:s
W<L_QR Code Settle>,5,2,M0,8,7,23,0
<PN>/<SN>
Y<L_FC Settle>,Image0-62
AG,<L_Luxshare Settle>,1,1,0,0E,LUXSHARE-ICT
AD,<L_Product Settle>,1,1,0,0E,<Product>
AD,<L_Class Settle>,1,1,0,0E,<Class>
AD,<L_Made In Taiwan Settle>,1,1,0,0E,MADE IN CHINA
AD,<L_PN/SN Settle>,1,1,0,0E,<PN>/<SN>
