Error Code Test Lane0
Slave Address : A0 , Reg. Address : 7F , RW : 0 , Length :   1 , Delay :   100 , Data : 01
Slave Address : A0 , Reg. Address : F5 , RW : 0 , Length :   1 , Delay :   10 , Data : 34
Slave Address : A0 , Reg. Address : ED , RW : 0 , Length :   1 , Delay :   100 , Data : 03
Slave Address : A0 , Reg. Address : 4A , RW : 1 , Length :   1 , Delay :   10 , Data : 15
Error Code Test Lane1
Slave Address : A0 , Reg. Address : F5 , RW : 0 , Length :   1 , Delay :   10 , Data : 43
Slave Address : A0 , Reg. Address : ED , RW : 0 , Length :   1 , Delay :   10 , Data : 03
Slave Address : A0 , Reg. Address : 4A , RW : 1 , Length :   1 , Delay :   10 , Data : 51
Config Value 0 Lane0
Slave Address : A0 , Reg. Address : F5 , RW : 0 , Length :   1 , Delay :   10 , Data : 40
Slave Address : A0 , Reg. Address : ED , RW : 0 , Length :   1 , Delay :   10 , Data : 03
Slave Address : A0 , Reg. Address : 4A , RW : 1 , Length :   1 , Delay :   10 , Data : 51
Slave Address : A0 , Reg. Address : 52 , RW : 1 , Length :   1 , Delay :   10 , Data : 30
Config Value 0 Lane1
Slave Address : A0 , Reg. Address : F5 , RW : 0 , Length :   1 , Delay :   10 , Data : 00
Slave Address : A0 , Reg. Address : ED , RW : 0 , Length :   1 , Delay :   10 , Data : 03
Slave Address : A0 , Reg. Address : 4A , RW : 1 , Length :   1 , Delay :   10 , Data : 11
Slave Address : A0 , Reg. Address : 52 , RW : 1 , Length :   1 , Delay :   10 , Data : 00
System Side Values
Slave Address : A0 , Reg. Address : 7A , RW : 0 , Length :   1 , Delay :   10 , Data : 3A 18 B6 6F
Slave Address : A0 , Reg. Address : 7F , RW : 0 , Length :   1 , Delay :   100 , Data : 87
Slave Address : A0 , Reg. Address : 8A , RW : 1 , Length :   2 , Delay :   10 , Data : 00 50
Slave Address : A0 , Reg. Address : 8E , RW : 1 , Length :   2 , Delay :   10 , Data : 00 50