Config Value 5 Lane0
Slave Address : A0 , Reg. Address : 7F , RW : 0 , Length :   1 , Delay :   100 , Data : 01
Slave Address : A0 , Reg. Address : F3 , RW : 0 , Length :   1 , Delay :   10 , Data : 85
Slave Address : A0 , Reg. Address : ED , RW : 0 , Length :   1 , Delay :   10 , Data : 03
Slave Address : A0 , Reg. Address : 4A , RW : 1 , Length :   1 , Delay :   10 , Data : 51
Config Value 5 Lane1
Slave Address : A0 , Reg. Address : 7F , RW : 0 , Length :   1 , Delay :   100 , Data : 01
Slave Address : A0 , Reg. Address : F3 , RW : 0 , Length :   1 , Delay :   10 , Data : 55
Slave Address : A0 , Reg. Address : ED , RW : 0 , Length :   1 , Delay :   10 , Data : 03
Slave Address : A0 , Reg. Address : 4A , RW : 1 , Length :   1 , Delay :   10 , Data : 11
System Side Values
Slave Address : A0 , Reg. Address : 7A , RW : 0 , Length :   1 , Delay :   10 , Data : 3A 18 B6 6F
Slave Address : A0 , Reg. Address : 7F , RW : 0 , Length :   1 , Delay :   100 , Data : 87
Slave Address : A0 , Reg. Address : 82 , RW : 1 , Length :   2 , Delay :   10 , Data :  FF EC
Slave Address : A0 , Reg. Address : 86 , RW : 1 , Length :   2 , Delay :   10 , Data :  FF EC