18
57
41
56
45
53
50
4C
49
54
54
45
52
20
20
20
20
00
0F
0E
57
53
54
2D
51
44
34
2D
53
52
38
2D
43
20
20
20
31
30
54
48
59
4D
46
31
20
20
20
20
20
20
20
20
20
20
59
59
4D
4D
44
44
20
20
20
20
20
20
20
20
20
20
20
20
A0
30
00
28
00
00
00
00
00
00
00
02
00
00
00
00
00
00
00
00
00
00
00
00
00
00
00
00
00
00
00
00
00
00
00
00
00
00
00
00
00
00
00
00
00
00
00
00
00
00
00
00
00
00
00
00
