55
00
FB
00
50
00
00
00
8C
A0
71
48
88
B8
75
30
00
00
00
00
00
00
00
00
00
00
00
00
00
00
00
00
00
00
00
00
00
00
00
00
00
00
00
00
00
00
00
00
9B
83
02
77
7B
87
03
E8
27
10
00
FA
23
28
01
F4
9B
83
02
77
7B
87
03
E8
00
00
00
00
00
00
00
00
00
00
00
00
00
00
00
00
00
00
00
00
00
00
00
00
00
00
00
00
00
00
00
00
00
00
00
00
00
00
00
00
00
00
00
00
00
00
00
00
00
00
00
00
00
00
00
00
