02
03
02
00
00
00
00
32
00
00
42
68
07
D0
00
0A
99
60
46
00
00
00
00
10
00
F0
77
02
00
00
00
03
07
01
01
00
00
00
00
88
77
00
00
00
00
00
00
00
01
FF
FF
00
00
00
00
00
00
00
00
00
00
00
00
00
00
00
00
00
00
00
00
00
00
00
00
00
00
00
00
00
00
00
00
00
00
00
00
00
00
00
00
00
00
00
00
00
00
00
00
00
00
00
00
00
00
00
00
00
00
00
00
00
00
00
00
00
00
00
00
00
00
00
00
00
00
00
00
00
