5F
00
EC
00
55
00
F6
00
8D
CC
74
04
8A
AC
77
24
00
00
00
00
00
00
00
00
00
00
00
00
00
00
00
00
00
00
00
00
00
00
00
00
00
00
00
00
00
00
00
00
C3
C7
0A
0A
9B
83
0C
A4
C3
50
00
FA
9C
40
01
F4
F6
78
03
2D
C3
C7
03
FF
00
00
00
00
00
00
00
00
00
00
00
00
00
00
00
00
00
00
00
00
00
00
00
00
00
00
00
00
00
00
00
00
00
00
00
00
00
00
00
00
00
00
00
00
00
00
00
00
00
00
00
00
00
00
00
00
