0C
13
16
19
1C
1F
23
26
29
2C
2F
32
36
39
3C
3F
00
FC
F8
F4
F0
EC
E8
E4
E4
E4
E4
00
00
00
00
00
50
64
7C
94
00
00
00
00
00
00
00
00
00
00
00
00
93
78
CC
AE
00
00
00
00
00
00
00
00
00
00
00
00
00
FC
F8
F4
F0
EC
E8
E4
E4
E4
E4
00
00
00
00
00
00
00
00
00
00
00
00
00
00
00
00
00
00
00
00
00
00
00
00
00
00
00
00
00
00
00
00
00
00
00
00
00
00
00
00
00
00
00
00
00
00
00
00
00
00
00
00
00
