1A
4C
55
58
53
48
41
52
45
2D
49
43
54
20
20
20
20
3C
18
A0
33
48
45
31
36
30
39
30
41
41
52
41
30
31
20
20
41
20
4C
4C
32
32
30
31
37
30
30
30
31
20
20
20
20
20
59
59
4D
4D
44
44
20
20
49
4E
55
49
41
4D
59
48
41
41
60
0E
00
0C
00
00
00
00
00
00
00
02
00
00
00
00
00
00
00
00
00
00
00
00
33
48
45
31
36
30
39
30
41
41
52
41
30
31
20
20
4E
4F
4B
20
20
49
4E
55
49
41
4D
59
48
41
41
00
