Config Value 1 Lane0
Slave Address : A0 , Reg. Address : 7F , RW : 0 , Length :   1 , Delay :   100 , Data : 10
Slave Address : A0 , Reg. Address : A2 , RW : 0 , Length :   1 , Delay :   10 , Data : 81
Slave Address : A0 , Reg. Address : 90 , RW : 0 , Length :   1 , Delay :   10 , Data : FF
Slave Address : A0 , Reg. Address : 7F , RW : 0 , Length :   1 , Delay :   100 , Data : 11
Slave Address : A0 , Reg. Address : CA , RW : 1 , Length :   1 , Delay :   10 , Data : 51
Config Value 1 Lane1
Slave Address : A0 , Reg. Address : 7F , RW : 0 , Length :   1 , Delay :   100 , Data : 10
Slave Address : A0 , Reg. Address : A2 , RW : 0 , Length :   1 , Delay :   10 , Data : 11
Slave Address : A0 , Reg. Address : 90 , RW : 0 , Length :   1 , Delay :   10 , Data : FF
Slave Address : A0 , Reg. Address : 7F , RW : 0 , Length :   1 , Delay :   100 , Data : 11
Slave Address : A0 , Reg. Address : CA , RW : 1 , Length :   1 , Delay :   10 , Data : 11
Config Value 1 Lane2
Slave Address : A0 , Reg. Address : 7F , RW : 0 , Length :   1 , Delay :   100 , Data : 10
Slave Address : A0 , Reg. Address : A3 , RW : 0 , Length :   1 , Delay :   10 , Data : 81
Slave Address : A0 , Reg. Address : 90 , RW : 0 , Length :   1 , Delay :   10 , Data : FF
Slave Address : A0 , Reg. Address : 7F , RW : 0 , Length :   1 , Delay :   100 , Data : 11
Slave Address : A0 , Reg. Address : CB , RW : 1 , Length :   1 , Delay :   10 , Data : 51
Config Value 1 Lane3
Slave Address : A0 , Reg. Address : 7F , RW : 0 , Length :   1 , Delay :   100 , Data : 10
Slave Address : A0 , Reg. Address : A3 , RW : 0 , Length :   1 , Delay :   10 , Data : 11
Slave Address : A0 , Reg. Address : 90 , RW : 0 , Length :   1 , Delay :   10 , Data : FF
Slave Address : A0 , Reg. Address : 7F , RW : 0 , Length :   1 , Delay :   100 , Data : 11
Slave Address : A0 , Reg. Address : CB , RW : 1 , Length :   1 , Delay :   10 , Data : 11
Config Value 1 Lane4
Slave Address : A0 , Reg. Address : 7F , RW : 0 , Length :   1 , Delay :   100 , Data : 10
Slave Address : A0 , Reg. Address : A4 , RW : 0 , Length :   1 , Delay :   10 , Data : 81
Slave Address : A0 , Reg. Address : 90 , RW : 0 , Length :   1 , Delay :   10 , Data : FF
Slave Address : A0 , Reg. Address : 7F , RW : 0 , Length :   1 , Delay :   100 , Data : 11
Slave Address : A0 , Reg. Address : CC , RW : 1 , Length :   1 , Delay :   10 , Data : 51
Config Value 1 Lane5
Slave Address : A0 , Reg. Address : 7F , RW : 0 , Length :   1 , Delay :   100 , Data : 10
Slave Address : A0 , Reg. Address : A4 , RW : 0 , Length :   1 , Delay :   10 , Data : 11
Slave Address : A0 , Reg. Address : 90 , RW : 0 , Length :   1 , Delay :   10 , Data : FF
Slave Address : A0 , Reg. Address : 7F , RW : 0 , Length :   1 , Delay :   100 , Data : 11
Slave Address : A0 , Reg. Address : CC , RW : 1 , Length :   1 , Delay :   10 , Data : 11
Config Value 1 Lane6
Slave Address : A0 , Reg. Address : 7F , RW : 0 , Length :   1 , Delay :   100 , Data : 10
Slave Address : A0 , Reg. Address : A5 , RW : 0 , Length :   1 , Delay :   10 , Data : 81
Slave Address : A0 , Reg. Address : 90 , RW : 0 , Length :   1 , Delay :   10 , Data : FF
Slave Address : A0 , Reg. Address : 7F , RW : 0 , Length :   1 , Delay :   100 , Data : 11
Slave Address : A0 , Reg. Address : CD , RW : 1 , Length :   1 , Delay :   10 , Data : 51
Config Value 1 Lane7
Slave Address : A0 , Reg. Address : 7F , RW : 0 , Length :   1 , Delay :   100 , Data : 10
Slave Address : A0 , Reg. Address : A5 , RW : 0 , Length :   1 , Delay :   10 , Data : 11
Slave Address : A0 , Reg. Address : 90 , RW : 0 , Length :   1 , Delay :   10 , Data : FF
Slave Address : A0 , Reg. Address : 7F , RW : 0 , Length :   1 , Delay :   100 , Data : 11
Slave Address : A0 , Reg. Address : CD , RW : 1 , Length :   1 , Delay :   10 , Data : 11
System Side Values
Slave Address : A0 , Reg. Address : 7A , RW : 0 , Length :   1 , Delay :   10 , Data : 3A 18 B6 6F
Slave Address : A0 , Reg. Address : 7F , RW : 0 , Length :   1 , Delay :   100 , Data : 87
Slave Address : A0 , Reg. Address : 80 , RW : 1 , Length :   8 , Delay :   10 , Data :FF FC FF FC FF FC FF FC
Slave Address : A0 , Reg. Address : 98 , RW : 1 , Length :   8 , Delay :   10 , Data : 00 00 00 00 00 00 00 00
Slave Address : A0 , Reg. Address : A0 , RW : 1 , Length :   8 , Delay :   10 , Data : 00 00 00 00 00 00 00 00
Slave Address : A0 , Reg. Address : 7F , RW : 0 , Length :   1 , Delay :   100 , Data : 8E
Slave Address : A0 , Reg. Address : 80 , RW : 1 , Length :   8 , Delay :   10 , Data : FF FC FF FC FF FC FF FC
Slave Address : A0 , Reg. Address : 98 , RW : 1 , Length :   8 , Delay :   10 , Data : 00 00 00 00 00 00 00 00
Slave Address : A0 , Reg. Address : A0 , RW : 1 , Length :   8 , Delay :   10 , Data : 00 00 00 00 00 00 00 00