Set0_Apply_DataPathInit
Slave Address : A0 , Reg. Address : ED , RW : 0 , Length :   1 , Delay :   10 , Data : 30
Config Invalid Mode Lane0
Slave Address : A0 , Reg. Address : 7F , RW : 0 , Length :   1 , Delay :   100 , Data : 01
Slave Address : A0 , Reg. Address : EE , RW : 0 , Length :   2 , Delay :   10 , Data : FF 11
Slave Address : A0 , Reg. Address : 4A , RW : 1 , Length :   1 , Delay :   10 , Data : 13
Config Invalid Mode Lane1
Slave Address : A0 , Reg. Address : 7F , RW : 0 , Length :   1 , Delay :   100 , Data : 01
Slave Address : A0 , Reg. Address : EE , RW : 0 , Length :   2 , Delay :   10 , Data : 11 FF
Slave Address : A0 , Reg. Address : 4A , RW : 1 , Length :   1 , Delay :   10 , Data : 31
Config NRZ Mode Lane0
Slave Address : A0 , Reg. Address : 7F , RW : 0 , Length :   1 , Delay :   100 , Data : 01
Slave Address : A0 , Reg. Address : EE , RW : 0 , Length :   1 , Delay :   10 , Data : 21
Slave Address : A0 , Reg. Address : 4A , RW : 1 , Length :   1 , Delay :   10 , Data : 31
Config NRZ Mode Lane1
Slave Address : A0 , Reg. Address : 7F , RW : 0 , Length :   1 , Delay :   100 , Data : 01
Slave Address : A0 , Reg. Address : EF , RW : 0 , Length :   1 , Delay :   10 , Data : 21
Slave Address : A0 , Reg. Address : 4A , RW : 1 , Length :   1 , Delay :   10 , Data : 11
System Side Page
Slave Address : A0 , Reg. Address : 7A , RW : 0 , Length :   1 , Delay :   10 , Data : 3A 18 B6 6F
Slave Address : A0 , Reg. Address : 7F , RW : 0 , Length :   1 , Delay :   100 , Data : 87
System Side Values
Slave Address : A0 , Reg. Address : 82 , RW : 1 , Length :   2 , Delay :   10 , Data : FF F4
Slave Address : A0 , Reg. Address : 86 , RW : 1 , Length :   2 , Delay :   10 , Data : FF F4
Slave Address : A0 , Reg. Address : 8A , RW : 1 , Length :   2 , Delay :   10 , Data : 00 70
Slave Address : A0 , Reg. Address : 8E , RW : 1 , Length :   2 , Delay :   10 , Data : 00 70
Slave Address : A0 , Reg. Address : 92 , RW : 1 , Length :   2 , Delay :   10 , Data : 00 00
Slave Address : A0 , Reg. Address : 96 , RW : 1 , Length :   2 , Delay :   10 , Data : 00 00