4B
00
FB
00
49
00
00
00
00
00
00
00
00
00
00
00
8C
A0
71
48
88
B8
75
30
00
00
00
00
00
00
00
00
00
00
00
00
00
00
00
00
00
00
00
00
00
00
00
00
4D
F1
02
77
45
77
03
E8
27
10
00
FA
23
28
01
F4
4D
F1
02
77
45
77
03
E8
00
00
00
00
00
00
00
00
00
00
00
00
00
00
00
00
00
00
00
00
00
00
00
00
A7
0F
00
00
00
00
00
00
00
00
66
66
00
00
22
22
00
00
00
00
00
00
00
00
00
00
00
00
00
00
00
00
