Page01 DataPathDeinit=>0x03
Slave Address : A0 , Reg. Address : 7F , RW : 0 , Length :   1 , Delay :   100 , Data : 01
Slave Address : A0 , Reg. Address : E9 , RW : 0 , Length :   1 , Delay :   10 , Data : 03
Low Page DataPathDeactivate then Clear Flag
Slave Address : A0 , Reg. Address : 04 , RW : 1 , Length :   1 , Delay :   10 , Data : 11
Slave Address : A0 , Reg. Address : 05 , RW : 1 , Length :   1 , Delay :   10 , Data : 03
Slave Address : A0 , Reg. Address : 05 , RW : 1 , Length :   1 , Delay :   10 , Data : 00
LowPwr Bit=>1 to Low Power Mode
Slave Address : A0 , Reg. Address : 1A , RW : 0 , Length :   1 , Delay :   100 , Data : 40
ModuleLowPwr
Slave Address : A0 , Reg. Address : 03 , RW : 1 , Length :   1 , Delay :   100 , Data : 02
ModuleStateChanged then Clear Flag
Slave Address : A0 , Reg. Address : 0A, RW : 1 , Length :   1 , Delay :   10 , Data : 01
Slave Address : A0 , Reg. Address : 0A, RW : 1 , Length :   1 , Delay :   10 , Data : 00
Config Error Code
Slave Address : A0 , Reg. Address : 4A , RW : 1 , Length :   1 , Delay :   10 , Data : 00