LowPwr => Power Up
Slave Address : A0 , Reg. Address : 1A , RW : 0 , Length :   1 , Delay :   100 , Data : 00
ModuleReady
Slave Address : A0 , Reg. Address : 03 , RW : 1 , Length :   1 , Delay :   10 , Data : 06
ModuleStateChanged then Clear Flag
Slave Address : A0 , Reg. Address : 0A , RW : 1 , Length :   1 , Delay :   10 , Data : 01
Slave Address : A0 , Reg. Address : 0A , RW : 1 , Length :   1 , Delay :   10 , Data : 00
Set0_Apply_DataPathInit
Slave Address : A0 , Reg. Address : 7F , RW : 0 , Length :   1 , Delay :   100 , Data : 01
Slave Address : A0 , Reg. Address : ED , RW : 0 , Length :   1 , Delay :   10 , Data : 30
Config PAM4 Mode Lane0
Slave Address : A0 , Reg. Address : EE , RW : 0 , Length :   1 , Delay :   10 , Data : 21
Slave Address : A0 , Reg. Address : 4A , RW : 1 , Length :   1 , Delay :   10 , Data : 11
Indicators for Active Control Set Lane0
Slave Address : A0 , Reg. Address : 4B , RW : 1 , Length :   1 , Delay :   10 , Data : 21
Config PAM4 Mode Lane1
Slave Address : A0 , Reg. Address : EF , RW : 0 , Length :   1 , Delay :   10 , Data : 21
Slave Address : A0 , Reg. Address : 4A , RW : 1 , Length :   1 , Delay :   10 , Data : 11
Indicators for Active Control Set Lane1
Slave Address : A0 , Reg. Address : 4C , RW : 1 , Length :   1 , Delay :   10 , Data : 21
Exit Config Mode
Slave Address : A0 , Reg. Address : E9 , RW : 0 , Length :   1 , Delay :   2000 , Data : 00
Low Page DataPathActivated then Clear Flag
Slave Address : A0 , Reg. Address : 04 , RW : 1 , Length :   1 , Delay :   10 , Data : 44
Slave Address : A0 , Reg. Address : 05 , RW : 1 , Length :   1 , Delay :   10 , Data : 03
Slave Address : A0 , Reg. Address : 05 , RW : 1 , Length :   1 , Delay :   10 , Data : 00
Max Rx Output Limit
Slave Address : A0 , Reg. Address : 99 , RW : 1 , Length :   1 , Delay :   10 , Data : 70
Slave Address : A0 , Reg. Address : 9A , RW : 1 , Length :   1 , Delay :   10 , Data : 33
Check Clear Set0_Apply_DataPathInit
Slave Address : A0 , Reg. Address : ED , RW : 1 , Length :   1 , Delay :   10 , Data : 00
Write Password
Slave Address : A0 , Reg. Address : 7A , RW : 0 , Length :   1 , Delay :   10 , Data : 3A 18 B6 6F
System Side Page
Slave Address : A0 , Reg. Address : 7F , RW : 0 , Length :   1 , Delay :   100 , Data : 87
System Side Values - Pre1 CH2 & CH4
Slave Address : A0 , Reg. Address : 82 , RW : 1 , Length :   2 , Delay :   10 , Data : FF F4
Slave Address : A0 , Reg. Address : 86 , RW : 1 , Length :   2 , Delay :   10 , Data : FF F4
System Side Values - Main CH2 & CH4
Slave Address : A0 , Reg. Address : 8A , RW : 1 , Length :   2 , Delay :   10 , Data : 00 70
Slave Address : A0 , Reg. Address : 8E , RW : 1 , Length :   2 , Delay :   10 , Data : 00 70
System Side Values - Post1 CH2 & CH4
Slave Address : A0 , Reg. Address : 92 , RW : 1 , Length :   2 , Delay :   10 , Data : 00 00
Slave Address : A0 , Reg. Address : 96 , RW : 1 , Length :   2 , Delay :   10 , Data : 00 00