50
00
F6
00
4B
00
FB
00
94
6F
6D
5F
90
88
71
48
9C
40
09
C4
92
7C
0B
B8
31
2D
07
CB
2B
D4
09
CF
31
2D
00
C7
27
10
00
FB
00
00
00
00
00
00
00
00
00
00
00
00
00
00
00
00
00
00
00
00
00
00
00
00
00
00
00
00
3F
80
00
00
00
00
00
00
01
00
00
00
01
00
00
00
01
00
00
00
01
00
00
00
00
00
00
00
00
00
00
00
00
00
00
00
00
00
00
00
00
00
00
00
00
00
00
00
00
00
00
00
00
00
00
00
00
00
00
00
