03
04
23
10
00
00
00
40
00
04
00
06
67
00
00
00
00
00
05
00
4C
55
58
53
48
41
52
45
2D
49
43
54
20
20
20
20
00
3C
18
19
50
36
55
51
53
30
35
30
31
2D
53
44
2D
52
20
20
41
20
20
20
03
52
00
00
00
1A
00
00
42
37
38
4A
42
30
37
43
20
20
20
20
20
20
20
20
00
00
00
00
00
00
20
20
68
E0
05
00
00
00
00
00
00
00
00
00
00
00
00
00
00
00
00
00
00
00
00
00
00
00
00
00
00
00
00
00
00
00
00
00
