03
04
21
01
00
00
04
41
84
80
D5
00
67
00
00
00
00
00
00
1E
4C
55
58
53
48
41
52
45
2D
49
43
54
20
20
20
20
00
3C
18
A0
50
41
30
53
53
31
32
30
34
2D
53
44
2D
52
20
20
52
65
76
31
01
00
00
00
00
00
00
00
42
37
38
4A
42
30
37
43
20
20
20
20
20
20
20
20
31
37
30
34
31
31
20
20
00
00
00
00
00
00
00
00
00
00
00
00
00
00
00
00
00
00
00
00
00
00
00
00
00
00
00
00
00
00
00
00
00
00
00
00
