44
44
44
44
00
00
00
00
FF
00
00
FF
00
FF
00
FF
00
FF
00
00
00
FF
00
FF
00
00
19
99
18
9D
18
73
19
06
12
A0
12
37
12
22
12
76
0F
EA
0E
EE
0E
C4
0F
57
08
F1
08
88
08
73
08
C7
00
01
00
01
00
01
00
01
00
01
00
01
00
01
00
01
00
00
00
00
10
10
10
10
10
10
10
10
00
00
00
00
00
00
00
00
00
00
00
00
00
00
00
00
00
00
00
00
00
00
00
00
00
00
11
22
33
44
55
66
77
88
11
22
33
44
55
66
77
88
