19
41
72
69
73
74
61
20
4E
65
74
77
6F
72
6B
73
20
00
1C
73
41
4F
43
2D
4F
2D
4F
2D
34
30
30
47
2D
31
4D
20
34
31
58
4D
4D
59
59
57
57
5A
5A
5A
5A
5A
20
20
20
20
59
59
4D
4D
44
44
20
20
20
20
20
20
20
20
20
20
20
20
80
28
41
23
00
00
00
00
00
00
00
02
00
00
00
00
00
00
00
00
00
00
00
00
00
00
00
00
00
00
00
00
00
00
00
00
00
00
00
00
00
00
00
00
00
00
00
00
00
00
00
00
00
00
00
00
