19
4C
55
58
53
48
41
52
45
2D
49
43
54
20
20
20
20
3C
18
A0
50
41
30
20
20
20
20
20
20
2D
53
44
2D
52
20
20
41
20
41
38
36
20
20
20
20
20
20
20
20
20
20
20
20
20
59
59
4D
4D
44
44
20
20
20
20
20
20
20
20
20
20
20
20
A0
30
00
28
00
00
00
00
00
00
00
00
00
00
00
00
00
00
00
00
00
00
00
00
00
00
00
00
00
00
00
00
00
00
00
00
00
00
00
00
00
00
00
00
00
00
00
00
00
00
00
00
00
00
00
00
