03
04
23
00
00
00
00
00
00
00
00
06
FF
00
00
00
00
00
00
00
4C
55
58
53
48
41
52
45
2D
49
43
54
20
20
20
20
01
3C
18
A0
50
41
30
53
53
32
00
00
00
2D
53
44
2D
52
20
20
41
20
20
20
03
52
00
00
00
1A
67
00
00
00
00
00
00
00
00
00
20
20
20
20
20
20
20
20
00
00
00
00
00
00
20
20
68
50
08
00
DF
10
01
B1
04
10
10
00
00
00
00
00
00
00
00
00
00
00
00
00
00
00
00
00
00
00
00
00
00
00
00
00
