Exit Config Mode
Slave Address : A0 , Reg. Address : 7F , RW : 0 , Length :   1 , Delay :   100 , Data : 10
Slave Address : A0 , Reg. Address : 80 , RW : 0 , Length :   1 , Delay :   1000 , Data : 00
Check Clear Set0_Apply_DataPathInit
Slave Address : A0 , Reg. Address : 7F , RW : 0 , Length :   1 , Delay :   100 , Data : 10
Slave Address : A0 , Reg. Address : 8F , RW : 1 , Length :   1 , Delay :   10 , Data : 00
DataPathActivated then Clear Flag
Slave Address : A0 , Reg. Address : 7F , RW : 0 , Length :   1 , Delay :   100 , Data : 11
Slave Address : A0 , Reg. Address : 80 , RW : 1 , Length :   2 , Delay :   10 , Data : 44 44
Slave Address : A0 , Reg. Address : 86 , RW : 1 , Length :   1 , Delay :   10 , Data : 0F
Slave Address : A0 , Reg. Address : 86 , RW : 1 , Length :   1 , Delay :   10 , Data : 00
