Set0_Apply_DataPathInit and Mode to PAM4
Slave Address : A0 , Reg. Address : 8F , RW : 0 , Length :   1 , Delay :   10 , Data : FF
Slave Address : A0 , Reg. Address : 91 , RW : 0 , Length :   8 , Delay :   10 , Data : 11 11 11 11 00 00 00 00
Invalid Pre Post Main Changed Lane0
Slave Address : A0 , Reg. Address : 7F , RW : 0 , Length :   1 , Delay :   100 , Data : 10
Slave Address : A0 , Reg. Address : A2 , RW : 0 , Length :   12 , Delay :   10, Data : 5F 55 00 00 0F 00 00 00 3F 33 00 00 
Slave Address : A0 , Reg. Address : 90 , RW : 0 , Length :   1 , Delay :   10 , Data : FF
Slave Address : A0 , Reg. Address : 7F , RW : 0 , Length :   1 , Delay :   100 , Data : 11
Slave Address : A0 , Reg. Address : DF , RW : 1 , Length :   12 , Delay :   10 , Data : 55 55 00 00 00 00 00 00 33 33 00 00 
Slave Address : A0 , Reg. Address : CA , RW : 1 , Length :   4 , Delay :   10 , Data : 15 11 00 00
Invalid Pre Post Main Changed Lane1
Slave Address : A0 , Reg. Address : 7F , RW : 0 , Length :   1 , Delay :   100 , Data : 10
Slave Address : A0 , Reg. Address : A2 , RW : 0 , Length :   12 , Delay :   10, Data : F5 55 00 00 F0 00 00 00 F3 33 00 00 
Slave Address : A0 , Reg. Address : 90 , RW : 0 , Length :   1 , Delay :   10 , Data : FF
Slave Address : A0 , Reg. Address : 7F , RW : 0 , Length :   1 , Delay :   100 , Data : 11
Slave Address : A0 , Reg. Address : DF , RW : 1 , Length :   12 , Delay :   10 , Data : 55 55 00 00 00 00 00 00 33 33 00 00 
Slave Address : A0 , Reg. Address : CA , RW : 1 , Length :   4 , Delay :   10 , Data : 51 11 00 00
Invalid Pre Post Main Changed Lane2
Slave Address : A0 , Reg. Address : 7F , RW : 0 , Length :   1 , Delay :   100 , Data : 10
Slave Address : A0 , Reg. Address : A2 , RW : 0 , Length :   12 , Delay :   10, Data : 55 5F 00 00 00 0F 00 00 33 3F 00 00 
Slave Address : A0 , Reg. Address : 90 , RW : 0 , Length :   1 , Delay :   10 , Data : FF
Slave Address : A0 , Reg. Address : 7F , RW : 0 , Length :   1 , Delay :   100 , Data : 11
Slave Address : A0 , Reg. Address : DF , RW : 1 , Length :   12 , Delay :   10 , Data : 55 55 00 00 00 00 00 00 33 33 00 00 
Slave Address : A0 , Reg. Address : CA , RW : 1 , Length :   4 , Delay :   10 , Data : 11 15 00 00
Invalid Pre Post Main Changed Lane3
Slave Address : A0 , Reg. Address : 7F , RW : 0 , Length :   1 , Delay :   100 , Data : 10
Slave Address : A0 , Reg. Address : A2 , RW : 0 , Length :   12 , Delay :   10, Data : 55 F5 00 00 00 F0 00 00 33 F3 00 00 
Slave Address : A0 , Reg. Address : 90 , RW : 0 , Length :   1 , Delay :   10 , Data : FF
Slave Address : A0 , Reg. Address : 7F , RW : 0 , Length :   1 , Delay :   100 , Data : 11
Slave Address : A0 , Reg. Address : DF , RW : 1 , Length :   12 , Delay :   10 , Data : 55 55 00 00 00 00 00 00 33 33 00 00 
Slave Address : A0 , Reg. Address : CA , RW : 1 , Length :   4 , Delay :   10 , Data : 11 51 00 00
Invalid Pre Post Main Changed All Lanes
Slave Address : A0 , Reg. Address : 7F , RW : 0 , Length :   1 , Delay :   100 , Data : 10
Slave Address : A0 , Reg. Address : A2 , RW : 0 , Length :   12 , Delay :   10, Data : FF FF FF FF FF FF FF FF FF FF FF FF
Slave Address : A0 , Reg. Address : 90 , RW : 0 , Length :   1 , Delay :   10 , Data : FF
Slave Address : A0 , Reg. Address : 7F , RW : 0 , Length :   1 , Delay :   100 , Data : 11
Slave Address : A0 , Reg. Address : DF , RW : 1 , Length :   12 , Delay :   10 , Data : 55 55 00 00 00 00 00 00 33 33 00 00 
Slave Address : A0 , Reg. Address : CA , RW : 1 , Length :   4 , Delay :   10 , Data : 55 55 00 00
Pre Post Main Changed All Lanes
Slave Address : A0 , Reg. Address : 7F , RW : 0 , Length :   1 , Delay :   100 , Data : 10
Slave Address : A0 , Reg. Address : A2 , RW : 0 , Length :   12 , Delay :   10, Data : 55 55 00 00 00 00 00 00 33 33 00 00 
Slave Address : A0 , Reg. Address : 90 , RW : 0 , Length :   1 , Delay :   10 , Data : FF
Slave Address : A0 , Reg. Address : 7F , RW : 0 , Length :   1 , Delay :   150 , Data : 11
Slave Address : A0 , Reg. Address : DF , RW : 1 , Length :   12 , Delay :   10 , Data : 55 55 00 00 00 00 00 00 33 33 00 00 
Slave Address : A0 , Reg. Address : CA , RW : 1 , Length :   4 , Delay :   10 , Data : 11 11 00 00
Write Password
Slave Address : A0 , Reg. Address : 7A , RW : 0 , Length :   1 , Delay :   10 , Data : 3A 18 B6 6F
System Side Values
Slave Address : A0 , Reg. Address : 7F , RW : 0 , Length :   1 , Delay :   100 , Data : 87
Slave Address : A0 , Reg. Address : 80 , RW : 1 , Length :   8 , Delay :   10 , Data : FF EC FF EC FF EC FF EC
Slave Address : A0 , Reg. Address : 88 , RW : 1 , Length :   8 , Delay :   10 , Data : 00 94 00 94 00 94 00 94
Slave Address : A0 , Reg. Address : 90 , RW : 1 , Length :   8 , Delay :   10 , Data : 00 00 00 00 00 00 00 00