11
CD
07
80
00
00
00
00
00
00
00
03
FF
00
0A
00
00
00
00
44
4C
55
58
53
48
41
52
45
2D
49
43
54
20
20
20
20
07
3C
18
A0
50
57
34
31
51
53
00
00
00
2D
4E
43
2D
54
20
20
41
20
65
A4
00
CE
46
00
03
07
FF
FE
41
59
4D
44
41
20
20
20
20
20
20
20
20
20
20
20
00
00
00
00
00
00
20
20
3C
00
67
00
00
00
00
00
00
00
00
00
00
00
00
00
00
00
00
00
00
00
00
00
00
00
00
00
00
00
00
00
00
00
00
00
