11
4C
23
80
00
00
00
00
00
00
00
05
FF
00
00
00
00
00
05
00
4C
55
58
53
48
41
52
45
2D
49
43
54
20
20
20
20
1F
3C
18
A0
50
36
55
51
53
31
35
30
31
2D
53
44
2D
52
20
20
42
20
42
68
07
D0
00
00
01
0F
C1
14
41
37
34
4D
41
30
30
31
20
20
20
20
20
20
20
20
00
00
00
00
00
00
20
20
08
00
67
00
00
00
00
00
00
00
00
00
00
00
00
00
00
00
00
00
00
00
00
00
00
00
00
00
00
00
00
00
00
00
00
00
