18
44
45
4C
4C
20
20
20
20
20
20
20
20
20
20
20
20
3C
18
A0
36
52
52
47
44
20
20
20
20
20
20
20
20
20
20
20
58
30
54
57
30
4C
58
44
30
30
39
32
4A
53
53
53
53
20
59
59
4D
4D
44
44
20
20
20
20
20
20
20
20
20
20
20
20
40
1C
41
23
00
00
00
00
00
00
00
02
00
00
00
00
00
00
00
00
00
00
00
00
00
00
00
00
00
00
00
00
00
00
00
00
00
00
00
00
DF
10
02
A1
01
30
10
00
00
00
00
00
00
00
00
00
