18
44
45
4C
4C
20
45
4D
43
20
20
20
20
20
20
20
20
3C
18
A0
4B
32
31
50
52
20
20
20
20
20
20
20
20
20
20
20
41
30
54
57
30
4C
58
54
30
30
59
4D
44
53
53
53
53
20
59
59
4D
4D
44
44
20
20
20
20
20
20
20
20
20
20
20
20
20
0E
00
27
00
00
00
00
00
00
00
00
00
00
00
00
00
00
00
00
00
00
00
00
00
00
00
00
00
00
00
00
00
00
00
00
00
00
00
00
DF
10
02
11
18
02
00
00
00
00
00
00
00
00
00
00
