55
00
D8
00
50
00
E2
00
8D
CC
74
04
87
8C
7A
A8
92
7C
09
C4
88
B8
13
88
62
1F
04
EB
3D
E9
07
CB
62
1F
01
27
3D
E9
01
D4
00
00
00
00
00
00
00
00
00
00
00
00
00
00
00
00
00
00
00
00
00
00
00
00
00
00
00
00
3F
80
00
00
00
00
00
00
01
00
00
00
01
00
00
00
01
00
00
00
01
00
00
00
00
00
00
00
00
00
00
00
00
00
00
00
00
00
00
00
00
00
00
00
00
00
66
33
00
00
00
00
00
00
00
00
00
00
00
00
