03
04
23
00
00
00
00
00
00
00
00
06
FF
00
00
00
00
00
07
00
42
41
59
43
4F
4D
20
20
20
20
20
20
20
20
20
20
02
00
00
00
41
53
41
2D
47
42
35
41
41
33
20
20
20
20
20
20
41
20
20
20
03
52
00
00
08
1A
67
00
00
00
00
00
00
00
00
00
20
20
20
20
20
20
20
20
00
00
00
00
00
00
20
20
68
50
08
00
00
00
00
00
00
00
00
00
00
00
00
00
00
00
00
00
00
00
00
00
00
00
00
00
00
00
00
00
00
00
00
00
