03
04
07
00
00
00
00
40
48
04
00
06
FF
00
0A
64
00
00
0A
07
43
4F
52
45
54
45
4B
20
4F
50
54
4F
20
20
20
20
02
00
00
00
43
54
2D
42
35
30
00
00
00
50
2D
4E
42
34
4C
44
41
20
20
20
05
1E
00
00
08
1A
67
00
00
00
00
00
00
00
00
00
20
20
20
20
20
20
20
20
00
00
00
00
00
00
20
20
68
50
08
00
00
00
00
00
00
00
00
00
00
00
00
00
00
00
00
00
00
00
00
00
00
00
00
00
00
00
00
00
00
00
00
00
