02
03
02
00
00
32
32
23
00
00
42
68
07
D0
20
0A
88
60
46
00
00
00
00
18
00
F0
77
1E
04
04
04
03
07
01
01
00
00
00
00
88
77
00
00
00
00
00
00
00
01
01
05
0F
0F
00
00
00
00
00
00
00
00
00
00
00
00
00
00
00
00
00
00
00
00
00
00
00
00
00
00
00
00
00
00
00
00
00
00
00
00
00
00
00
00
00
00
00
00
00
00
00
00
00
00
00
00
00
00
00
00
00
00
00
00
00
00
00
00
00
00
00
00
00
00
00
00
00
00
00
